CellPhoneReviews
…
NLP

Tokenization - Turn text to tokens

library(tidytext)
library(stringr)
library(tidyverse)
library(dplyr)

df = df %>%
mutate(extract = str_replace_all(extract, "(<br />)+", " ")) %>%
select(extract, score, score_max, date, lang, country,product)
df

## # A tibble: 52,291 x 7
##    extract            score score_max date  lang  country product          
##    <chr>              <dbl>     <dbl> <chr> <chr> <chr>   <chr>            
##  1 As a diehard Sams~  10          10 5/2/~ en    us      Samsung Galaxy S8
##  2 Love the phone. t~  10          10 4/28~ en    us      Samsung Galaxy S8
##  3 Adequate feel. Ni~   6          10 5/4/~ en    us      "Samsung Galaxy ~
##  4 Never disappointe~   9.2        10 5/2/~ en    us      Samsung Galaxy S~
##  5 I've now found th~   4          10 5/11~ en    us      Samsung Galaxy S8
##  6 I am the type of ~  10          10 5/10~ en    us      Samsung Galaxy S8
##  7 The way this Sams~   4          10 5/10~ en    us      Samsung Galaxy S8
##  8 I bought this pho~   6          10 5/10~ en    us      Samsung Galaxy S8
##  9 It is an extremel~   6          10 5/10~ en    us      Samsung Galaxy S8
## 10 "Great phone with~   8          10 5/10~ en    us      Samsung Galaxy S8
## # ... with 52,281 more rows

tokens <- df %>%
unnest_tokens(output = word, input = extract)
tokens

## # A tibble: 1,426,730 x 7
##    score score_max date     lang  country product           word   
##    <dbl>     <dbl> <chr>    <chr> <chr>   <chr>             <chr>  
##  1    10        10 5/2/2017 en    us      Samsung Galaxy S8 as     
##  2    10        10 5/2/2017 en    us      Samsung Galaxy S8 a      
##  3    10        10 5/2/2017 en    us      Samsung Galaxy S8 diehard
##  4    10        10 5/2/2017 en    us      Samsung Galaxy S8 samsung
##  5    10        10 5/2/2017 en    us      Samsung Galaxy S8 fan    
##  6    10        10 5/2/2017 en    us      Samsung Galaxy S8 who    
##  7    10        10 5/2/2017 en    us      Samsung Galaxy S8 has    
##  8    10        10 5/2/2017 en    us      Samsung Galaxy S8 had    
##  9    10        10 5/2/2017 en    us      Samsung Galaxy S8 every  
## 10    10        10 5/2/2017 en    us      Samsung Galaxy S8 samsung
## # ... with 1,426,720 more rows

Remove stopwords

sw = get_stopwords()
sw

## # A tibble: 175 x 2
##    word      lexicon 
##    <chr>     <chr>   
##  1 i         snowball
##  2 me        snowball
##  3 my        snowball
##  4 myself    snowball
##  5 we        snowball
##  6 our       snowball
##  7 ours      snowball
##  8 ourselves snowball
##  9 you       snowball
## 10 your      snowball
## # ... with 165 more rows

cleaned_tokens <- tokens %>%
filter(!word %in% sw$word)

Remove Numbers

nums <- cleaned_tokens %>%
filter(str_detect(word, "^[0-9]")) %>%
select(word) %>% unique()
nums

## # A tibble: 1,312 x 1
##    word 
##    <chr>
##  1 1st  
##  2 2    
##  3 5.8  
##  4 5.6  
##  5 100  
##  6 3    
##  7 22   
##  8 7    
##  9 12   
## 10 6s   
## # ... with 1,302 more rows
…
rare <- cleaned_tokens %>%
count(word) %>%
filter(n<10) %>%
select(word) %>% unique()
rare

## # A tibble: 17,349 x 1
##    word                                                                    
##    <chr>                                                                   
##  1 ___                                                                     
##  2 ____                                                                    
##  3 __________________________________                                      
##  4 ___________________________________________                             
##  5 _______________________________________________________________________~
##  6 _______________________________________________________________________~
##  7 _thoroughly_                                                            
##  8 _three_                                                                 
##  9 _ve                                                                     
## 10 <U+0251>                                                                       
## # ... with 17,339 more rows
…
We can also say that most of the words are positive.

Sentiment analysis

sent_reviews = cleaned_tokens %>%
left_join(get_sentiments("nrc")) %>%
rename(nrc = sentiment) %>%
left_join(get_sentiments("bing")) %>%
rename(bing = sentiment) %>%
left_join(get_sentiments("afinn")) %>%
rename(afinn = value)
sent_reviews

## # A tibble: 867,804 x 10
##    score score_max date   lang  country product    word   nrc   bing  afinn
##    <dbl>     <dbl> <chr>  <chr> <chr>   <chr>      <chr>  <chr> <chr> <dbl>
##  1    10        10 5/2/2~ en    us      Samsung G~ samsu~ <NA>  <NA>     NA
##  2    10        10 5/2/2~ en    us      Samsung G~ fan    <NA>  <NA>      3
##  3    10        10 5/2/2~ en    us      Samsung G~ every  <NA>  <NA>     NA
##  4    10        10 5/2/2~ en    us      Samsung G~ samsu~ <NA>  <NA>     NA
##  5    10        10 5/2/2~ en    us      Samsung G~ phone  <NA>  <NA>     NA
##  6    10        10 5/2/2~ en    us      Samsung G~ since  <NA>  <NA>     NA
##  7    10        10 5/2/2~ en    us      Samsung G~ s      <NA>  <NA>     NA
##  8    10        10 5/2/2~ en    us      Samsung G~ series trust <NA>     NA
##  9    10        10 5/2/2~ en    us      Samsung G~ start~ <NA>  <NA>     NA
## 10    10        10 5/2/2~ en    us      Samsung G~ favor~ joy   posi~     2
## # ... with 867,794 more rows

Most common positive and negative words

bing_word_counts <- sent_reviews %>%
filter(!is.na(bing)) %>%
count(word, bing, sort = TRUE)
bing_word_counts

## # A tibble: 753 x 3
##    word      bing         n
##    <chr>     <chr>    <int>
##  1 good      positive 41725
##  2 love      positive 22966
##  3 great     positive 12597
##  4 happy     positive  8488
##  5 excellent positive  7899
##  6 best      positive  7133
##  7 perfect   positive  6484
##  8 like      positive  5759
##  9 fast      positive  4670
## 10 amazing   positive  4253
## # ... with 743 more rows
…
